{
  "project_info": {
    "project_number": "869239584025",
    "firebase_url": "https://dashapp-42e21.firebaseio.com",
    "project_id": "dashapp-42e21",
    "storage_bucket": "dashapp-42e21.appspot.com"
  },
  "client": [
    {
      "client_info": {
        "mobilesdk_app_id": "1:869239584025:android:65f9a477201dc738dc0188",
        "android_client_info": {
          "package_name": "io.medina.dash"
        }
      },
      "oauth_client": [
        {
          "client_id": "869239584025-cs4rrt8589g379oaso9vkkdofchnufo8.apps.googleusercontent.com",
          "client_type": 3
        }
      ],
      "api_key": [
        {
          "current_key": "AIzaSyB8cA29Bv3reBO_TZMyygU_kDwTqPH1uGE"
        }
      ],
      "services": {
        "appinvite_service": {
          "other_platform_oauth_client": [
            {
              "client_id": "869239584025-cs4rrt8589g379oaso9vkkdofchnufo8.apps.googleusercontent.com",
              "client_type": 3
            }
          ]
        }
      }
    }
  ],
  "configuration_version": "1"
}